^C:\DEV\HISTOMORPHOMETRICANALYSISOF2DAND3DBINARYVOXELMAPS\HISTOMORPHOMETRICANALYSIS\HISTOMORPHOMETRICANALYSIS\DEBUG\MAIN.OBJ
C:\DEV\HISTOMORPHOMETRICANALYSISOF2DAND3DBINARYVOXELMAPS\HISTOMORPHOMETRICANALYSIS\DEBUG\HISTOMORPHOMETRICANALYSIS.EXE
C:\DEV\HISTOMORPHOMETRICANALYSISOF2DAND3DBINARYVOXELMAPS\HISTOMORPHOMETRICANALYSIS\DEBUG\HISTOMORPHOMETRICANALYSIS.ILK
C:\DEV\HISTOMORPHOMETRICANALYSISOF2DAND3DBINARYVOXELMAPS\HISTOMORPHOMETRICANALYSIS\DEBUG\HISTOMORPHOMETRICANALYSIS.PDB
