^C:\USERS\ΝΙΚΌΛΑς ΣΤΡΑΤΉΓΑς\DESKTOP\HISTOMORPHOMETRICANALYSISOF2DAND3DBINARYVOXELMAPS\HISTOMORPHOMETRICANALYSIS\HISTOMORPHOMETRICANALYSIS\DEBUG\SOURCE.OBJ
/OUT:"C:\USERS\ΝΙΚΌΛΑς ΣΤΡΑΤΉΓΑς\DESKTOP\HISTOMORPHOMETRICANALYSISOF2DAND3DBINARYVOXELMAPS\HISTOMORPHOMETRICANALYSIS\DEBUG\HISTOMORPHOMETRICANALYSIS.EXE" /INCREMENTAL /NOLOGO /LIBPATH:"C:\VCPKG\INSTALLED\X86-WINDOWS\DEBUG\LIB" /LIBPATH:"C:\VCPKG\INSTALLED\X86-WINDOWS\DEBUG\LIB\MANUAL-LINK" KERNEL32.LIB USER32.LIB GDI32.LIB WINSPOOL.LIB COMDLG32.LIB ADVAPI32.LIB SHELL32.LIB OLE32.LIB OLEAUT32.LIB UUID.LIB ODBC32.LIB ODBCCP32.LIB "C:\VCPKG\INSTALLED\X86-WINDOWS\DEBUG\LIB\*.LIB" /MANIFEST /MANIFESTUAC:"level='asInvoker' uiAccess='false'" /manifest:embed /DEBUG:FASTLINK /PDB:"C:\USERS\ΝΙΚΌΛΑς ΣΤΡΑΤΉΓΑς\DESKTOP\HISTOMORPHOMETRICANALYSISOF2DAND3DBINARYVOXELMAPS\HISTOMORPHOMETRICANALYSIS\DEBUG\HISTOMORPHOMETRICANALYSIS.PDB" /SUBSYSTEM:CONSOLE /TLBID:1 /DYNAMICBASE /NXCOMPAT /IMPLIB:"C:\USERS\ΝΙΚΌΛΑς ΣΤΡΑΤΉΓΑς\DESKTOP\HISTOMORPHOMETRICANALYSISOF2DAND3DBINARYVOXELMAPS\HISTOMORPHOMETRICANALYSIS\DEBUG\HISTOMORPHOMETRICANALYSIS.LIB" /MACHINE:X86 DEBUG\SOURCE.OBJ
^C:\DEV\HISTOMORPHOMETRICANALYSISOF2DAND3DBINARYVOXELMAPS\HISTOMORPHOMETRICANALYSIS\HISTOMORPHOMETRICANALYSIS\DEBUG\MAIN.OBJ
/OUT:"C:\DEV\HISTOMORPHOMETRICANALYSISOF2DAND3DBINARYVOXELMAPS\HISTOMORPHOMETRICANALYSIS\DEBUG\HISTOMORPHOMETRICANALYSIS.EXE" /INCREMENTAL /NOLOGO /LIBPATH:"C:\VCPKG\INSTALLED\X86-WINDOWS\DEBUG\LIB" /LIBPATH:"C:\VCPKG\INSTALLED\X86-WINDOWS\DEBUG\LIB\MANUAL-LINK" KERNEL32.LIB USER32.LIB GDI32.LIB WINSPOOL.LIB COMDLG32.LIB ADVAPI32.LIB SHELL32.LIB OLE32.LIB OLEAUT32.LIB UUID.LIB ODBC32.LIB ODBCCP32.LIB "C:\VCPKG\INSTALLED\X86-WINDOWS\DEBUG\LIB\*.LIB" /MANIFEST /MANIFESTUAC:"level='asInvoker' uiAccess='false'" /manifest:embed /DEBUG:FASTLINK /PDB:"C:\DEV\HISTOMORPHOMETRICANALYSISOF2DAND3DBINARYVOXELMAPS\HISTOMORPHOMETRICANALYSIS\DEBUG\HISTOMORPHOMETRICANALYSIS.PDB" /SUBSYSTEM:CONSOLE /TLBID:1 /DYNAMICBASE /NXCOMPAT /IMPLIB:"C:\DEV\HISTOMORPHOMETRICANALYSISOF2DAND3DBINARYVOXELMAPS\HISTOMORPHOMETRICANALYSIS\DEBUG\HISTOMORPHOMETRICANALYSIS.LIB" /MACHINE:X86 DEBUG\MAIN.OBJ
